(module ESP8266-01 (layer F.Cu) (tedit 61AA28C5)
  (fp_text reference REF** (at 0 5.08) (layer F.SilkS)
    (effects (font (size 1 1) (thickness 0.15)))
  )
  (fp_text value ESP8266-01 (at 0 -6.35) (layer F.Fab)
    (effects (font (size 1 1) (thickness 0.15)))
  )
  (fp_line (start 3.81 -3.81) (end -6.35 -3.81) (layer F.SilkS) (width 0.12))
  (fp_line (start 3.81 2.54) (end 3.81 -3.81) (layer F.SilkS) (width 0.12))
  (fp_line (start -6.35 2.54) (end 3.81 2.54) (layer F.SilkS) (width 0.12))
  (fp_line (start -6.35 -3.81) (end -6.35 2.54) (layer F.SilkS) (width 0.12))
  (pad GND thru_hole circle (at -5.08 -2.54) (size 1.7 1.7) (drill 0.9) (layers *.Cu *.Mask))
  (pad TXD thru_hole circle (at -5.08 1.27) (size 1.7 1.7) (drill 0.9) (layers *.Cu *.Mask))
  (pad CH_PD thru_hole circle (at -2.54 1.27) (size 1.7 1.7) (drill 0.9) (layers *.Cu *.Mask))
  (pad GPIO16 thru_hole circle (at 0 1.27) (size 1.7 1.7) (drill 0.9) (layers *.Cu *.Mask))
  (pad GPIO2 thru_hole circle (at -2.54 -2.54) (size 1.7 1.7) (drill 0.9) (layers *.Cu *.Mask))
  (pad GPIO0 thru_hole circle (at 0 -2.54) (size 1.7 1.7) (drill 0.9) (layers *.Cu *.Mask))
  (pad VCC thru_hole circle (at 2.54 1.27) (size 1.7 1.7) (drill 0.9) (layers *.Cu *.Mask))
  (pad RXD thru_hole circle (at 2.54 -2.54) (size 1.7 1.7) (drill 0.9) (layers *.Cu *.Mask))
)
