(module SOT-223 (layer F.Cu) (tedit 61AAB944)
  (descr "module CMS SOT223 4 pins")
  (tags "CMS SOT")
  (attr smd)
  (fp_text reference REF** (at 0 -4.5) (layer F.SilkS)
    (effects (font (size 1 1) (thickness 0.15)))
  )
  (fp_text value SOT-223 (at 0 4.5) (layer F.Fab)
    (effects (font (size 1 1) (thickness 0.15)))
  )
  (fp_line (start -1.85 -2.3) (end -0.8 -3.35) (layer F.Fab) (width 0.1))
  (fp_line (start 1.91 3.41) (end 1.91 2.15) (layer F.SilkS) (width 0.12))
  (fp_line (start 1.91 -3.41) (end 1.91 -2.15) (layer F.SilkS) (width 0.12))
  (fp_line (start 4.4 -3.6) (end -4.4 -3.6) (layer F.CrtYd) (width 0.05))
  (fp_line (start 4.4 3.6) (end 4.4 -3.6) (layer F.CrtYd) (width 0.05))
  (fp_line (start -4.4 3.6) (end 4.4 3.6) (layer F.CrtYd) (width 0.05))
  (fp_line (start -4.4 -3.6) (end -4.4 3.6) (layer F.CrtYd) (width 0.05))
  (fp_line (start -1.85 -2.3) (end -1.85 3.35) (layer F.Fab) (width 0.1))
  (fp_line (start -1.85 3.41) (end 1.91 3.41) (layer F.SilkS) (width 0.12))
  (fp_line (start -0.8 -3.35) (end 1.85 -3.35) (layer F.Fab) (width 0.1))
  (fp_line (start -4.1 -3.41) (end 1.91 -3.41) (layer F.SilkS) (width 0.12))
  (fp_line (start -1.85 3.35) (end 1.85 3.35) (layer F.Fab) (width 0.1))
  (fp_line (start 1.85 -3.35) (end 1.85 3.35) (layer F.Fab) (width 0.1))
  (fp_text user %R (at 0 0 90) (layer F.Fab)
    (effects (font (size 0.8 0.8) (thickness 0.12)))
  )
  (pad 1 smd rect (at -3.15 -2.3) (size 2.2 1.2) (layers F.Cu F.Paste F.Mask))
  (pad 3 smd rect (at -3.15 2.3) (size 2.2 1.2) (layers F.Cu F.Paste F.Mask))
  (pad 2 smd rect (at -3.15 0) (size 2.2 1.2) (layers F.Cu F.Paste F.Mask))
  (pad 4 smd rect (at 3.15 0) (size 2.2 3.5) (layers F.Cu F.Paste F.Mask))
  (model ${KISYS3DMOD}/Package_TO_SOT_SMD.3dshapes/SOT-223.wrl
    (at (xyz 0 0 0))
    (scale (xyz 1 1 1))
    (rotate (xyz 0 0 0))
  )
  (model "C:/Program Files (x86)/KiCad/share/kicad/modules/Package_TO_SOT_SMD.pretty/SOT-223-3_TabPin2.kicad_mod"
    (offset (xyz 0.07000000000000001 0 0))
    (scale (xyz 1 1 1))
    (rotate (xyz 0.9 0 0))
  )
)
